1@17.7587844254511@1.29787907565685@30.75@0@0@1.20003545425768
1@14.57111834962@1.60694896851249@47.97@1@0@1.42762975027144
1@17.4039158810732@1.77664974619289@62.44@0@0@1.44263234227701
1@16.0526315789474@1.15131578947368@48.36@0@1@1.31593881578947
1@17.463933181473@1.97418375094913@46.81@0@0@1.46481397114655
1@16.6801401239558@2.1018593371059@55.8@1@0@1.05765912153058
1@20.2919188323247@0.711997152011392@42.51@0@0@0.887134211463154
1@19.7001249479384@1.33277800916285@50.2@0@0@1.40739483548521
1@17.408274785324@1.56128024980484@71.32@0@0@1.57455191256831
1@15.7349896480331@1.59420289855072@77.29@1@0@1.26550869565217
1@14.96035849707@1.79248534987935@50.32@0@0@1.67771423647018
1@18.0846118084612@1.41794514179451@46.8@1@0@1.1507919572292
1@17.2962226640159@2.03777335984095@38.71@1@0@1.13093439363817
1@16.5775401069519@0.935828877005348@56.33@1@0@1.02601002673797
1@15.6032849020846@1.89513581806696@54.29@0@0@0.894003158559697
1@16.1104368932039@2.76092233009709@51.23@0@0@1.5179817961165
1@15.8676893576222@1.88558644934484@29.11@0@1@1.33571268775967
1@15.1585460170147@1.58546017014695@46.15@0@0@1.20161755607115
1@17.0670037926675@1.51706700379267@59.56@0@1@1.81890922882427
1@16.9951309993044@1.59981451425922@47.85@1@0@1.06985346626478
1@18.112141992739@1.33118192819685@41.49@0@0@1.13873578055668
1@18.1057268722467@2.20264317180617@45.34@0@0@1.60134273127753
1@17.1225177969277@1.42375421506182@39.1@1@0@1.34248894717123
1@15.6945174286215@2.3121387283237@49.31@1@0@1.12294955333684
1@17.8093787032335@1.86219739292365@57.43@0@1@1.39070543423057
1@14.7943831494483@1.25376128385155@23.83@0@0@0.976359578736209
1@16.8343139115582@1.70810400455494@51.99@1@0@1.14319263617385
1@17.1905873899766@1.05981677743848@40.21@1@0@1.05581067001976
1@14.9738610903659@1.30694548170276@49.2@1@0@1.36176101568335
1@15.8006362672322@1.99363732767762@45.04@1@0@0.979105832449629
1@18.3492496589359@1.84174624829468@75.38@1@0@1.08233628922237
1@17.4986286341196@1.91991223258365@52.67@0@0@1.40261162918267
1@18.9429175475687@1.26849894291755@52.43@0@0@0.847397463002114
1@14.3965517241379@2.45689655172414@41.01@1@0@1.00126336206897
1@19.4847020933977@3.05958132045089@53.09@0@0@1.45501288244767
1@16.4766558089034@1.27578718783931@50.24@1@0@1.2032842019544
1@15.6177695511337@1.59648310967145@30.56@1@0@0.933359093012494
1@18.0033120416371@2.55500354861604@45.12@1@0@1.61029713744973
1@16.9039145907473@1.60142348754448@57.5@0@0@1.86618060498221
1@15.9378036929057@2.81827016520894@73.9@0@0@2.0741739552964
1@17.7313201703446@2.05187766163376@53.48@0@0@1.64259930313589
1@18.8950276243094@1.39963167587477@40.91@0@0@1.45815101289134
1@21.6267169404794@1.85833557769997@57.32@1@0@1.59898007002424
1@19.7261978842564@2.03795892968264@69.12@0@1@1.47128173615432
1@16.6623942578826@2.46090745962574@48.99@1@0@1.13032453217124
1@15.9090909090909@1.10671936758893@29.59@1@0@0.904216403162055
1@18.6521739130435@2.73913043478261@54.51@1@0@1.44569630434783
1@18.2960131075915@3.87766247951939@80.53@0@0@1.40125996723102
1@16.1386507640701@3.13082370480805@51.91@1@0@1.60383674990682
1@15.304396843292@2.64937993235626@38.45@1@0@1.39199351747463
1@18.3901621017328@2.4035774175517@62.9@0@0@1.63187479038569
1@19.5977549111319@1.87090739008419@42.35@0@0@1.04598269410664
1@17.765440666204@3.40041637751561@9.97@0@0@1.00499132546842
1@14.507299270073@2.82846715328467@39.55@0@0@1.27343248175182
1@16.3340336134454@2.52100840336134@77.53@0@0@1.4574968487395
1@15.439672801636@0.792433537832311@39.39@1@0@0.829280163599182
1@15.7943067033976@2.47933884297521@72.07@0@0@1.55188980716253
1@14.9024246008279@1.65582495564755@46.74@0@0@1.41074748669426
1@18.4839517414068@2.93648987024812@24.85@1@0@1.10100523560209
1@16.5865384615385@2.88461538461538@62.76@0@0@1.19828816105769
1@19.8483804272915@1.56214105214794@72.78@1@0@1.13926418561911
1@14.7315153219005@1.82738262580827@48.74@1@0@1.03756789429294
1@17.0014556040757@3.46433770014556@42.6@0@0@1.50131877729258
1@15.8103448275862@2.12068965517241@34.3@1@0@1.07167931034483
1@17.9163901791639@1.41008626410086@47.51@0@1@0.862643662906437
1@16.6127989657401@2.650290885585@47.88@0@0@1.53598771816419
1@18.5346391004715@1.30576713819369@36.07@0@0@0.798202756619514
1@14.9299065420561@2.17289719626168@35.76@1@0@1.32461285046729
1@14.0197152245345@1.77984665936473@24.73@1@0@0.984143756845564
1@15.5036578503095@1.40686550365785@39.73@1@0@0.94950393922341
1@17.7552897884085@1.65593376264949@56.69@0@0@1.11242594296228
1@19.0398432397126@1.46962769431744@100@0@0@1.35001698236447
1@16.2853297442799@1.77658142664872@63.1@1@0@1.66483903095559
1@13.9258420605718@1.89640532125672@45.03@1@0@1.09167308236626
1@16.8403730115195@1.68220881331139@22.47@1@0@0.880653318705431
1@19.6214051692756@1.12850382235166@28.64@0@0@1.12319330178376
1@16.0756501182033@1.59574468085106@67.92@0@0@1.22464095744681
1@15.791795324217@2.20555800617556@60.49@0@0@1.67121967357742
1@16.8024202932278@2.37374912729812@58.86@1@0@1.33672911333488
1@18.9835164835165@1.31868131868132@49.5@1@0@1.13320192307692
1@20.1695513952667@3.03779583186153@86.07@0@0@1.78350264924055
1@17.4949142691078@4.0976460331299@56.9@0@0@1.25967741935484
1@19.1627906976744@1.89147286821705@55.45@0@0@1.74014511627907
1@13.6@2.275@44.8@1@0@1.287757
1@12.6893939393939@1.60984848484848@23.03@0@0@1.04364299242424
1@17.9782469609725@1.71145233525272@82.37@0@1@1.35806301983365
1@17.8262263546008@2.08400128246233@74.71@0@0@1.36258672651491
1@16.4864864864865@1.50579150579151@90.31@0@0@1.4063277992278
1@13.5460761966786@1.30250732660371@20.29@0@0@0.989200260501465
1@18.3740601503759@0.93984962406015@67.76@0@0@1.38888486842105
1@17.7842565597668@2.68869452542922@65.69@0@0@1.45598574667962
1@12.9615384615385@1.5@21.04@1@0@0.925458461538462
1@16.586952362732@1.72182896498948@47.32@1@0@1.22595867610484
1@15.9066808059385@1.82926829268293@34.69@1@0@1.29685922587487
1@13.8075313807531@2.20827522082752@37.38@1@0@1.39289493258949
1@16.7508417508418@1.93602693602694@32.87@1@0@1.31205274971942
1@16.8060200668896@2.88461538461538@79.03@0@0@2.05398787625418
1@14.806820634578@1.14396719188431@27.38@1@0@1.22251219512195
1@15.0394682176984@2.86663896967179@66.7@0@0@1.51314665558787
1@17.5393419170243@2.14592274678112@58.18@0@0@1.34005092989986
1@19.434628975265@1.14840989399293@39.7@0@0@1.06007037691402
1@15.9267480577137@2.16426193118757@61@1@0@1.20608351831299
1@16.6497975708502@1.11336032388664@39.35@0@0@1.02615840080972
1@17.2144543308516@2.14272743780643@54.6@1@0@1.23997203559107
1@15.7589209492914@3.0903192760799@43.93@1@0@1.92290046098685
1@16.196090598821@1.67545764815389@44.06@0@0@1.05804374806081
1@18.7429537767756@1.12739571589628@42.49@1@0@1.24039177001127
1@17.7398583386993@2.38248551191243@70.35@0@0@2.03983258209916
1@16.0471107839529@3.75414059624586@71.11@0@0@1.85448030916452
1@17.8257933828494@1.51924375422012@46.98@0@0@1.23912424037812
1@18.4132034201631@1.05388745277391@69.75@1@0@1.48369854841917
1@17.3862310385064@1.28354725787631@97.55@0@0@1.21538798133022
1@15.7413563829787@1.21343085106383@41.95@0@1@1.10565874335106
1@16.8520807581376@1.31850020601566@35.85@1@0@1.00004738360115
1@18.8151856487276@0.750938673341677@57.51@0@0@1.19467292448894
1@14.7463359639233@1.42051860202931@52.06@1@0@1.54654656144307
1@16.6130760986066@3.16184351554126@54.52@0@0@1.86734994640943
1@18.5172531602323@2.801503245644@46.84@0@0@1.41152066962761
1@15.929429813347@2.48018409613909@32.08@1@0@1.33567246228586
1@14.1060574303081@1.97023684762104@36.06@1@0@1.54055585831063
1@15.5344918378094@3.44918378093734@63.33@1@0@1.65809241706161
1@17.6086120722799@2.3836985774702@41.55@0@0@1.31275509419454
1@16.5235250186706@2.16579536967886@48.51@1@0@1.49994622852875
1@18.2285294837289@2.03082945926107@33.43@1@0@0.994216540249572
1@15.3609831029186@1.45929339477727@58.88@0@1@1.26645360983103
1@18.6446568201564@1.40747176368375@18.88@1@0@1.12063874891399
1@17.2814207650273@2.18579234972678@38.43@0@0@1.27647677595628
1@16.7276529012023@2.50914793518035@48.93@0@0@1.40217929952953
1@14.3547273982057@3.41614906832298@38.34@1@0@1.55139579020014
1@19.3605292171996@1.27894156560088@32.69@1@0@1.09185821389195
1@18.2204172050951@1.9937234631715@25.92@1@0@1.17900553812073
1@20.6428011497256@2.09041024301019@37.32@1@0@1.47324510060099
1@17.9500796601168@1.5400955921402@63.28@0@0@1.09865427509294
1@21.5120525931337@1.16873630387144@40.71@0@0@1.12195690284879
1@20.9737827715356@2.74656679151061@54.92@0@0@1.65271285892634
1@17.3611111111111@4.55246913580247@56.45@0@0@1.85857445987654
1@19.5346971520257@3.12876052948255@75.64@0@0@1.61041315683915
1@18.5857089966679@3.85042576823399@83.86@0@0@1.93734912995187
1@19.5488721804511@1.85991294024535@69.98@0@0@1.78503521962802
1@18.4100418410042@4.13179916317992@81.06@0@0@2.09677667364017
1@15.6549520766773@1.36923779096303@62@0@0@1.00874988589685
1@17.4589201877934@2.43544600938967@66.3@0@0@1.83350117370892
1@19.5783926218709@1.94993412384717@39.16@1@0@1.37577338603426
1@19.7142857142857@1.95918367346939@33.7@0@0@1.38584326530612
1@18.3697234352256@1.04803493449782@38.28@0@0@1.39661397379913
1@18.9728096676737@1.6012084592145@42.48@0@0@1.15413262839879
1@18.174239266361@2.04251771571488@35.55@0@0@1.22524176740308
1@19.6547144754316@3.65205843293493@52.28@0@0@1.80009196547145
1@18.6989212160837@2.1248774109186@51.75@0@0@1.34784439359268
1@21.2765957446809@1.7387325554793@36.72@1@0@1.09574124914207
1@13.08082780164@2.616165560328@19.45@0@0@1.31801679031628
1@13.8964577656676@2.23433242506812@53.45@0@0@0.954370027247956
1@17.6429889298893@1.33763837638376@48.99@1@0@1.45059824723247
1@15.3079032660184@2.66766392420843@53.89@1@0@1.55414909000249
1@19.7372742200328@1.47783251231527@78.91@0@0@1.13160328407225
1@17.5268267756771@2.04394481349004@72.26@1@0@1.42373505365355
1@15.2055473006439@0.990589400693413@31.55@0@0@1.55312580485389
1@16.8462291870715@1.743388834476@34.62@1@0@1.15337825661117
1@14.9483013293944@1.92023633677991@15.1@0@0@1.20824460856721
1@15.6398104265403@1.64296998420221@36.29@0@0@1.00186255924171
1@15.0506831203173@2.26972234464522@38.3@1@0@1.49028029969149
1@16.5416850463167@2.62461402734892@56.93@1@0@1.29890935156595
1@17.8425962422809@1.74747076599658@35.44475@0@1@1.20542885297596
1@19.3144815766924@2.65638389031705@55.26942@1@0@1.50815612682091
1@20.3578789582162@1.7519205546187@33.86336@0@1@1.17150964961589
1@21.5794306703398@1.24622851895579@32.33119@0@1@1.08364567755477
1@17.7840661732695@2.154984762734@48.34373@1@0@1.61578929037875
1@20.4269568857262@2.76864199007355@37.58513@0@1@1.04322382347665
1@15.362560118387@2.48797632260451@46@0@1@1.16357778394377
1@13.508064516129@2.78225806451613@40.69@0@0@1.4007625
1@17.2391857506361@2.09923664122137@46.56@0@0@1.50184669211196
1@22.9714285714286@0.971428571428571@75.1043@1@0@1.71883828571429
1@18.6859050798951@2.61149534939184@38.95066@0@1@1.33397758168376
1@18.6692997113778@2.44569345283305@27.38029@0@1@1.20819170590916
1@17.4509514677681@1.53414957958401@33.92363@0@1@1.10864935831244
1@16.1340800527096@1.49892933618844@56.41877@0@1@1.33480135068358
1@15.7146617530929@1.763622005791@36.28192@1@0@1.18232087391419
1@16.5620473201352@2.22114920328344@49.53859889@0@1@1.40435280862707