indicador@tipus@Edat min@Edat max@sexe@agrupador@f@temps min@temps max@valor min@valor max@usar
ndm2@N@@@@18@1@@@@@
nhomes@N@@@H@sexe@1@@@@@
nhta@N@@@@55@1@@@@@
nrd@N@@@@44@1@@@@@
nnd@N@@@@54@1@@@@@
navc@N@@@@7@1@@@@@
nci@N@@@@1@1@@@@@
nic@N@@@@21@1@@@@@
nevp@N@@@@431@1@@@@@
nhba1c@N@@@@20@1@@@@@1
nhba1c7@N@@@@20@1@@@0@7@1
nhba1c8@N@@@@20@1@@@0@8@1
nhba1c10@N@@@@20@1@@@10.01@1000@1
nimc@N@@@@19@1@@@10@60@1
nimc30@N@@@@19@1@@@30@60@1
ntabac@N@@@@tabac@1@@@0@2@
ntabacfum@N@@@@tabac@1@@@1@1@
ntabacex@N@@@@tabac@1@@@2@2@
nta@N@@@@16@1@@@75@240@1
nta@N@@@@17@2@@@45@180@1
nbcta14090@N@@@@16@1@@@75@140@1
nbcta14090@N@@@@17@2@@@45@90@1
nbcta13080@N@@@@16@1@@@75@130@1
nbcta13080@N@@@@17@2@@@45@80@1
ncoltot@N@@@@197@1@@@40@1000@1
ncoltot250@N@@@@197@1@@@40@249.99@1
ncoltot200@N@@@@197@1@@@40@199.99@1
ncolldl@N@@@@9@1@@@20@600@1
ncolldl130@N@@@@9@1@@@20@129.99@1
ncolldl100@N@@@@9@1@@@20@99.99@1
ntg@N@@@@31@1@@@50@3000@1
ntg150@N@@@@31@1@@@150@3000@1
nmdrd@N@@@@30@1@@@@@1
nirc@N@@@@30@1@@@0@59.99@1
nircnor@N@@@@30@1@@@60@1000@1
nircmod@N@@@@30@1@@@30@59.99@1
nircsev@N@@@@30@1@@@15@29.99@1
nircter@N@@@@30@1@@@0@14.99@1
naevol@M@@@@anys@@data_ext@dde@@@
nedatdxdm@M@@@@anys@@dde@data_naix@@@
nedat@M@@@@anys@@data_ext@data_naix@@@
nmeanimc@M@@@@19@@@@10@60@
nmeantas@M@@@@16@@@@75@240@
nmeantad@M@@@@17@@@@45@180@
nmeancolto@M@@@@197@@@@40@1000@
nmeancolld@M@@@@9@@@@20@600@
nmeantg@M@@@@31@@@@50@3000@
nprev1@P@@@@prev1@1@@@@@
nprev1bc@P@@@@prev1bc@1@@@@@
nprev2@P@@@@prev2@1@@@@@
nprev2bc@P@@@@prev2bc@1@@@@@
ntxhglu@F@@@@A10@1@@@100@@
ntxhglu@F@@@@A10@1@@@200@@
ntxhglu@F@@@@A10@1@@@300@@
ntxhglu@F@@@@A10@1@@@010@@
ntxhglu@F@@@@A10@1@@@110@@
ntxhglu@F@@@@A10@1@@@210@@
ntxhglu@F@@@@A10@1@@@310@@
ntxhglud@F@@@@A10@1@@@001@@
ntxhgluOm@F@@@@A10@1@@@100@@
ntxhgluOb@F@@@@A10@1@@@200@@
ntxhgluOt@F@@@@A10@1@@@300@@
ntxhgluIm@F@@@@A10@1@@@010@@
ntxhgluIb@F@@@@A10@1@@@110@@
ntxhgluIb@F@@@@A10@1@@@210@@
ntxhgluIb@F@@@@A10@1@@@310@@
ntxhlip@F@@@@C10@1@@@1@@
ntxhlip@F@@@@C10@1@@@2@@
ntxhlip@F@@@@C10@1@@@3@@
ntxhlipMo@F@@@@C10@1@@@1@@
ntxhlipBi@F@@@@C10@1@@@2@@
ntxhlipCh@F@@@@C10@1@@@3@@
ntxahten@F@@@@C02@1@@@1@@
ntxahten@F@@@@C02@1@@@2@@
ntxahten@F@@@@C02@1@@@3@@
ntxahten@F@@@@C02@1@@@4@@
ntxahtenMo@F@@@@C02@1@@@1@@
ntxahtenBi@F@@@@C02@1@@@2@@
ntxahtenTr@F@@@@C02@1@@@3@@
ntxahtenPo@F@@@@C02@1@@@4@@
ntxaagre@F@@@@B01@1@@@1@@
ntxaagre@F@@@@B01@1@@@2@@
ntxaagre@F@@@@B01@1@@@3@@
ntxaagreMo@F@@@@B01@1@@@1@@
ntxaagreBi@F@@@@B01@1@@@2@@
ntxaagrePo@F@@@@B01@1@@@3@@
ntxhlipE@F@@@@82@1@@@@@
ntxhlipF@F@@@@1005@1@@@@@
ntxhlipR@F@@@@1006@1@@@@@
ntxhlipO@F@@@@1007@1@@@@@
ntxhlipEz@F@@@@1008@1@@@@@
ntxahtC03@F@@@@1009@1@@@@@
ntxahtC07@F@@@@57@1@@@@@
ntxahtC08@F@@@@1010@1@@@@@
ntxahtC09a@F@@@@72@1@@@@@
ntxahtC09i@F@@@@56@1@@@@@
ntxahtC02@F@@@@1011@1@@@@@
