6731@E08VICVIN@01@E08037924
6523@I08022200@01@E08045001
6523@C08008592@01@E08901647
6523@I0800S852@01@E08740414
6102@251610629@05@E25673750
6102@251610633@05@E25660060
6102@250140626@05@E25658431
6102@252450624@05@E25659700
6102@250140623@05@E25658424
6102@251810547@05@E25023640
6102@250140611@05@E25043710
6102@252451010@05@E25658022
6102@251060635@05@E25024361
6102@251610581@05@E25038879
6102@251610552@05@E25016441
6102@251610574@05@E25036494
6102@250030560@05@E256660092
6102@250030549@05@E25024611
6102@250860183@05@E25020695
6102@250020172@05@E25026721
6102@253290187@05@E25024756
6102@253290621@05@E25031545
6102@250020171@05@E25026070
6102@251790620@05@E25040959
6102@253290188@05@E25021378
6102@251790617@05@E25659812
6102@251740160@05@E25026030
6102@253290614@05@E25037508
6102@253290634@05@E25660141
6102@252320608@05@E25037480
6102@252320607@05@E25660134
6102@251290605@05@E25052048
6102@252320601@05@E25035701
6102@250860178@05@E25022090
6102@250860177@05@E25020134
6102@250860600@05@E25028912
6102@250860599@05@E25659065
6102@250860563@05@E25044086
6102@251290598@05@E25031150
6102@252590164@05@E25026023
6102@253340595@05@E25672958
6102@251740594@05@E25030118
6102@250860179@05@E25024379
6102@252590592@05@E25021226
6102@250860181@05@E25024629
6102@251290588@05@E25659259
6102@250860582@05@E25659072
6102@250860176@05@E25020173
6102@251290579@05@E25659410
6102@251290576@05@E25053500
6102@253290186@05@E25022572
6102@253290573@05@E25030125
6102@250860182@05@E25016434
6102@252320557@05@E25016794
6102@253290570@05@E25660085
6102@253290189@05@E25024146
6102@253290567@05@E25660078
6102@252320566@05@E25025005
6523@E08022200@01@E08751590
6102@P25012006@04@E25991136
6728@E08025622@01@E08044939
6211@E43045876@01@E43045879
6735@E08022491@01@E08572953
6416@E17022558@01@E17031249
6310@E43090032@11@E43802251
6102@P25000179@01@E25023495
6102@P25000179@10@E25023495
6102@P25000174@01@E25022702
6102@P25000174@10@E25022702
6102@P25000174@02@E25022702
6416@P25000174@02@E25022702
6626@P25000174@02@E25022702
6102@P25000259@01@E25007447
6102@P25000259@10@E25007447
6839@P08000034@01@E08701623
6519@E08044960@01@E08808310
6519@E08044960@05@E08808310
6519@E08044960@06@E08808310
6519@E08044960@11@E08808310
6519@E08044960@12@E08808310
6519@E08044960@13@E08808310
6519@E08000316@01@E08035162
6519@E08000316@11@E08035162
6519@E08000316@06@E08035162
6519@E08000316@13@E08035162
6519@E08000316@12@E08035162
6519@P08000028@01@E08032796
6519@P08000028@11@E08032796
6519@P08000028@06@E08032796
6519@P08000028@12@E08032796
6519@P08000028@13@E08032796
6519@E08005760@01@E08035194
6519@E08005760@11@E08035194
6519@E08005760@05@E08035194
6519@E08005760@06@E08035194
6519@E08005760@12@E08035194
6520@P08000216@01@E08018449
6520@P08000216@11@E08018449
6520@P08000216@13@E08018449
6520@P08000216@12@E08018449
6521@E080TO220@01@E08025238
6521@E080TO220@05@E08025238
6521@E08030083@01@E08822392
6521@E08030083@05@E08822392
6521@E08030083@13@E08822392
6521@E08030083@12@E08822392
6522@P08000299@08@E08035123
6522@P08000299@04@E08035123
6522@P08000299@12@E08035123
6522@P08000299@13@E08035123
6522@P08000299@01@E08035123
6519@E08003442@02@E08871576
6520@E08003442@03@E08871576
6520@E08003442@02@E08871576
6521@E08003442@02@E08871576
6522@E08003442@02@E08871576
6522@E08003442@01@E08871576
6522@E08003442@03@E08871576
6522@E08003442@04@E08871576
6522@E08003442@06@E08871576
6523@E08003442@03@E08871576
6523@E08003442@02@E08871576
6102@U25007927@01@E25623615
