Pes@setmanes@0@0.5@6
Pes@setmanes@1@1.5@8
Pes@setmanes@2@1.5@9
Pes@setmanes@3@1.5@9
Pes@setmanes@4@2@10
Pes@setmanes@5@2@10
Pes@setmanes@6@2@10
Pes@setmanes@7@2@10
Pes@setmanes@8@2@10
Pes@setmanes@9@2@10
Pes@setmanes@10@2@10
Pes@setmanes@11@2@10
Pes@setmanes@12@2@10
Pes@setmanes@13@2@10
Pes@mesos@3@3@15
Pes@mesos@4@3@15
Pes@mesos@5@3@15
Pes@mesos@6@4@20
Pes@mesos@7@4@20
Pes@mesos@8@4@20
Pes@mesos@9@4@20
Pes@mesos@10@4@20
Pes@mesos@11@4@20
Pes@mesos@12@4@20
Pes@mesos@13@6@20
Pes@anys@1@6@25
Pes@anys@2@8@30
Pes@anys@3@8@30
Pes@anys@4@8@30
Pes@anys@5@10@35
Pes@anys@6@10@60
Pes@anys@7@12@70
Pes@anys@8@12@80
Pes@anys@9@15@90
Pes@anys@10@15@120
Pes@anys@11@15@120
Pes@anys@12@15@120
Pes@anys@13@20@140
Pes@anys@14@20@140
Pes@anys@15@20@140
Talla@setmanes@0@30@65
Talla@setmanes@1@40@65
Talla@setmanes@2@40@70
Talla@setmanes@3@40@70
Talla@setmanes@4@45@70
Talla@setmanes@5@45@70
Talla@setmanes@6@45@70
Talla@setmanes@7@45@70
Talla@setmanes@8@45@70
Talla@setmanes@9@45@70
Talla@setmanes@10@45@70
Talla@setmanes@11@45@70
Talla@setmanes@12@45@70
Talla@setmanes@13@45@70
Talla@mesos@3@50@90
Talla@mesos@4@50@90
Talla@mesos@5@50@90
Talla@mesos@6@55@95
Talla@mesos@7@55@95
Talla@mesos@8@55@95
Talla@mesos@9@55@95
Talla@mesos@10@55@95
Talla@mesos@11@55@95
Talla@mesos@12@55@95
Talla@mesos@13@60@95
Talla@anys@1@60@120
Talla@anys@2@70@150
Talla@anys@3@70@150
Talla@anys@4@70@150
Talla@anys@5@90@160
Talla@anys@6@90@160
Talla@anys@7@90@160
Talla@anys@8@100@185
Talla@anys@9@100@185
Talla@anys@10@100@185
Talla@anys@11@100@200
Talla@anys@12@100@200
Talla@anys@13@120@200
Talla@anys@14@120@200
Talla@anys@15@120@200
PC@setmanes@0@30@40
PC@setmanes@1@30@40
PC@setmanes@2@30@40
PC@setmanes@3@30@45
PC@setmanes@4@30@50
PC@setmanes@5@30@50
PC@setmanes@6@30@50
PC@setmanes@7@30@50
PC@setmanes@8@30@50
PC@setmanes@9@30@50
PC@setmanes@10@30@50
PC@setmanes@11@30@50
PC@setmanes@12@30@50
PC@setmanes@13@30@50
PC@mesos@3@35@60
PC@mesos@4@35@60
PC@mesos@5@35@60
PC@mesos@6@35@60
PC@mesos@7@35@60
PC@mesos@8@35@60
PC@mesos@9@35@60
PC@mesos@10@35@60
PC@mesos@11@35@60
PC@mesos@12@35@60
PC@mesos@13@35@60
PC@mesos@14@35@60
PC@mesos@15@35@60
PC@mesos@16@35@60
PC@mesos@17@35@60
PC@mesos@18@35@60
PC@mesos@19@35@60
PC@mesos@20@35@60
PC@mesos@21@35@60
PC@mesos@22@35@60
PC@mesos@23@35@60
PC@mesos@24@35@60
