BR002@IT@2@71
BR086@IT@1@17
BR086@IT@11@263
BR129@IT@1@50
BR135@IT@4@226
BR135@RJ@1@59
BR135@RJ@1@365
BR136@IT@8@68
BR136@RJ@2@635
BR136@RJ@3@458
BR137@IT@1@90
BR137@IT@1@50
BR137@RJ@3@730
BR138@IT@5@46
BR138@RJ@1@5
BR139@IT@1@2
BR139@IT@3@77
BR140@IT@1@17
BR141@IT@1@3
BR329@IT@1@15
BR001@IT@1@25
BR001@RJ@1@365
BR003@IT@3@35
BR014@IT@1@2
BR014@IT@1@9
BR081@IT@3@12
BR106@IT@12@478
BR106@RJ@1@365
BR106@RJ@1@184
BR161@IT@6@62
BR181@IT@1@3
BR245@IT@4@282
BR245@MJ@1@33
BR245@PT@2@56
BR245@RJ@1@81
BR245@RJ@1@207
BR245@RJ@1@275
BR013@IT@1@25
BR091@IT@2@39
BR091@RJ@1@214
BR107@IT@1@22
BR107@IT@5@347
BR162@IT@7@140
BR166@IT@15@441
BR166@MJ@1@38
BR188@IT@1@84
BR239@IT@2@95
BR239@RJ@1@365
BR240@IT@8@262
BR240@MJ@1@25
BR240@RJ@2@676
BR240@RJ@1@365
BR241@IT@2@25
BR241@IT@13@459
BR241@MJ@1@15
BR241@PT@1@28
BR243@IT@1@43
BR243@IT@5@78
BR243@RJ@1@365
BR244@IT@8@332
BR244@RJ@1@365
BR244@RJ@1@365
BR262@IT@3@180
BR263@IT@2@60
BR339@IT@4@482
BR352@IT@1@2
BR352@PT@1@28
BR352@RJ@1@365
BR087@IT@1@107
BR087@MJ@1@112
BR087@PT@1@28
BR118@IT@8@170
BR163@IT@2@67
BR163@RJ@1@365
BR303@IT@4@27
BR304@IT@13@174
BR304@RJ@1@365
BR305@IT@1@141
BR305@IT@5@89
BR305@MJ@1@112
BR305@RJ@1@107
BR305@RJ@1@86
BR305@RJ@1@365
BR306@IT@6@93
BR306@MJ@2@184
BR306@PT@2@56
BR306@RJ@1@106
BR306@RJ@1@142
BR306@RJ@1@365
BR306@RJ@3@410
BR004@IT@1@16
BR004@IT@8@365
BR004@MJ@2@196
BR004@RJ@1@365
BR004@RJ@3@868
BR113@IT@5@196
BR113@RJ@1@338
BR120@IT@1@26
BR165@IT@4@152
BR165@PT@1@28
BR178@IT@5@158
BR178@MJ@1@83
BR178@PT@2@28
BR206@IT@3@61
BR206@PT@1@28
BR206@RJ@4@1038
BR206@RJ@5@787
BR246@IT@3@65
BR246@RJ@1@91
BR255@IT@1@5
BR255@RJ@4@1006
BR256@IT@1@12
BR256@IT@12@670
BR256@MJ@1@112
BR256@RJ@1@365
BR260@IT@2@355
BR260@MJ@1@9
BR260@RJ@2@121
BR260@RJ@1@164
BR260@RJ@1@365
BR260@RJ@2@244
BR328@IT@1@38
BR328@IT@3@92
BR328@MJ@1@112
BR328@RJ@1@365
BR328@RJ@2@539
BR080@IT@1@1
BR080@MJ@1@39
BR092@IT@1@189
BR114@IT@2@31
BR119@IT@12@107
BR119@MJ@2@124
BR119@RJ@2@184
BR119@RJ@2@465
BR119@RJ@3@914
BR133@IT@1@3
BR133@IT@5@74
BR133@RJ@1@112
BR133@RJ@1@207
BR134@IT@1@1
BR134@MJ@2@148
BR134@PT@1@30
BR171@IT@7@267
BR171@RJ@1@306
BR177@IT@1@83
BR187@IT@15@193
BR187@RJ@1@132
BR187@RJ@1@233
BR189@IT@1@96
BR189@IT@15@146
BR189@RJ@2@365
BR267@IT@1@49
BR267@IT@5@54
BR343@IT@1@44
BR343@IT@1@13
BR347@IT@1@24
BR008@IT@5@118
BR008@MJ@2@224
BR015@IT@1@1
BR015@IT@11@85
BR015@MJ@1@112
BR015@RJ@1@31
BR124@IT@20@285
BR124@RJ@1@159
BR124@RJ@1@365
BR125@IT@7@287
BR125@MJ@1@112
BR125@RJ@1@235
BR125@RJ@1@119
BR125@RJ@3@860
BR126@IT@14@152
BR126@MJ@3@343
BR126@RJ@1@45
BR126@RJ@2@730
BR127@IT@1@32
BR127@IT@5@67
BR127@MJ@2@146
BR127@RJ@1@53
BR127@RJ@3@1042
BR199@IT@3@45
BR199@IT@16@548
BR199@RJ@3@1095
BR221@IT@5@61
BR221@RJ@2@730
BR231@IT@2@102
BR234@IT@1@20
BR234@IT@1@9
BR234@IT@15@231
BR234@PT@1@28
BR234@RJ@1@365
BR084@IT@2@68
BR085@IT@1@2
BR085@IT@1@56
BR085@IT@13@458
BR085@MJ@1@112
BR085@PT@1@28
BR085@RJ@1@365
BR093@IT@1@11
BR093@IT@12@239
BR093@MJ@1@66
BR172@IT@1@5
BR208@IT@2@113
BR208@IT@8@371
BR208@MJ@1@112
BR208@RJ@1@221
BR208@RJ@1@365
BR325@IT@3@124
BR325@IT@1@33
BR325@IT@11@247
BR325@MJ@2@209
BR325@PT@1@28
BR325@RJ@1@222
BR336@IT@14@76
BR108@IT@1@59
BR108@IT@16@307
BR108@MJ@1@112
BR108@RJ@1@105
BR109@IT@1@65
BR109@IT@13@314
BR109@MJ@3@336
BR109@RJ@3@259
BR109@RJ@2@162
BR109@RJ@1@90
BR110@IT@1@152
BR110@IT@8@299
BR110@RJ@1@365
BR110@RJ@1@365
BR111@IT@2@11
BR111@IT@6@31
BR111@MJ@1@68
BR111@PT@1@28
BR111@RJ@3@1095
BR116@IT@11@77
BR116@RJ@1@30
BR116@RJ@1@95
BR116@RJ@1@365
BR116@RJ@1@335
BR117@IT@8@54
BR117@RJ@1@365
BR117@RJ@1@365
BR160@IT@22@62
BR160@RJ@1@31
BR202@IT@19@187
BR202@PT@2@33
BR202@RJ@1@245
BR202@RJ@4@957
BR203@RJ@2@730
BR205@IT@6@172
BR205@MJ@1@112
BR205@RJ@1@96
BR205@RJ@1@58
BR205@RJ@1@365
BR209@IT@1@85
BR209@IT@5@24
BR209@RJ@1@120
BR209@RJ@2@610
BR210@IT@1@18
BR210@IT@17@552
BR210@MJ@3@212
BR210@RJ@1@53
BR210@RJ@1@201
BR210@RJ@3@1015
BR210@RJ@2@361
BR213@IT@4@26
BR214@IT@3@28
BR216@IT@1@2
BR216@RJ@1@111
BR261@IT@10@64
BR261@RJ@2@730
BR369@IT@8@530
BR369@MJ@1@112
BR374@IT@1@31
BR374@IT@6@98
BR374@RJ@1@89
BR374@RJ@1@122
BR374@RJ@2@154
BR375@IT@1@26
BR115@IT@2@55
BR115@IT@10@369
BR115@MJ@1@126
BR115@RJ@1@20
BR115@RJ@1@37
BR115@RJ@1@94
BR115@RJ@1@365
BR149@IT@18@585
BR149@MJ@3@238
BR201@IT@1@2
BR201@IT@17@93
BR360@IT@9@223
BR367@IT@8@530
BR367@MJ@1@18
BR370@IT@8@158
BR176@IT@2@38
BR176@IT@17@447
BR176@RJ@1@96
BR176@RJ@1@105
BR218@IT@1@54
BR218@RJ@2@365
BR218@RJ@1@273
BR235@IT@3@99
BR235@IT@8@98
BR235@MJ@1@112
BR235@RJ@2@341
BR268@RJ@1@365
BR316@IT@1@5
BR316@IT@11@87
BR316@PT@1@28
BR316@RJ@4@911
BR317@IT@10@86
BR317@RJ@1@273
BR317@RJ@1@144
BR318@IT@1@32
BR318@IT@5@11
BR318@RJ@1@365
BR318@RJ@2@712
BR359@IT@1@1
BR359@IT@1@5
BR359@IT@12@58
BR359@RJ@1@47
BR359@RJ@1@104
BR359@RJ@1@365
BR359@RJ@1@91
BR397@IT@9@37
BR397@RJ@1@175
BR398@IT@1@65
BR398@IT@2@6
BR122@IT@1@85
BR122@IT@7@212
BR122@MJ@1@112
BR122@PT@1@28
BR122@RJ@1@95
BR122@RJ@1@65
BR122@RJ@1@365
BR123@IT@2@260
BR123@IT@1@43
BR123@IT@17@174
BR123@RJ@1@365
BR123@RJ@1@105
BR182@IT@3@74
BR183@IT@7@154
BR183@PT@1@28
BR183@RJ@1@365
BR184@IT@1@61
BR184@IT@5@31
BR265@IT@15@118
BR265@RJ@1@51
BR265@RJ@1@207
BR266@IT@1@9
BR266@IT@2@135
BR266@IT@5@424
BR266@MJ@1@24
BR288@IT@16@124
BR288@MJ@2@167
BR288@RJ@1@19
BR288@RJ@1@19
BR288@RJ@1@92
BR289@IT@8@80
BR289@RJ@2@365
BR290@IT@3@132
BR292@IT@4@9
BR293@IT@3@329
BR294@IT@9@163
BR294@RJ@2@730
BR295@IT@5@7
BR296@IT@11@94
BR297@IT@1@4
BR297@IT@9@38
BR298@IT@7@35
BR299@IT@1@1
BR299@IT@10@234
BR299@PT@1@28
BR365@IT@5@37
BR365@MJ@1@89
BR373@IT@1@2
BR009@IT@1@77
BR009@IT@4@72
BR009@RJ@1@265
BR152@IT@1@64
BR152@IT@4@33
BR152@RJ@2@590
BR154@IT@8@139
BR154@RJ@1@365
BR155@IT@1@25
BR156@IT@1@15
BR156@IT@5@153
BR156@MJ@1@112
BR156@PT@1@28
BR156@RJ@1@58
BR157@IT@1@35
BR157@IT@4@29
BR158@IT@8@17
BR158@RJ@1@365
BR158@RJ@1@365
BR186@IT@3@58
BR186@MJ@2@173
BR186@PT@1@28
BR186@RJ@5@1332
BR227@IT@3@128
BR227@MJ@1@47
BR271@IT@1@8
BR271@IT@4@406
BR271@RJ@1@365
BR271@RJ@1@365
BR335@IT@1@20
BR335@IT@13@293
BR335@MJ@1@112
BR335@PT@1@28
BR353@IT@1@5
BR353@IT@2@109
BR154@IT@2@2
BR157@IT@5@16
BR222@IT@1@46
BR222@IT@8@311
BR222@MJ@1@89
BR223@IT@1@2
BR223@IT@6@314
BR223@RJ@1@365
BR224@IT@1@51
BR224@IT@8@933
BR224@RJ@1@365
BR225@IT@1@263
BR225@IT@1@105
BR225@IT@8@13
BR226@IT@9@150
BR227@IT@2@85
BR227@IT@11@40
BR227@PT@1@28
BR227@RJ@2@442
BR151@IT@5@535
BR272@IT@1@1
BR273@IT@1@26
BR273@RJ@1@365
BR275@IT@3@64
BR275@RJ@1@181
BR276@IT@3@26
BR276@RJ@1@181
BR277@IT@1@182
BR277@IT@4@122
BR282@IT@5@148
BR311@IT@1@61
BR311@IT@11@212
BR311@MJ@1@80
BR311@PT@1@28
BR311@RJ@1@103
BR311@RJ@2@121
BR311@RJ@1@87
BR341@IT@1@16
BR341@IT@1@33
BR341@IT@14@332
BR341@PT@1@28
BR342@IT@6@188
BR342@MJ@1@161
BR362@IT@9@164
BR362@RJ@1@298
BR362@RJ@1@69
BR088@IT@1@11
BR088@IT@2@26
BR131@IT@3@82
BR132@IT@4@73
BR132@RJ@2@365
BR146@RJ@1@234
BR229@IT@4@13
BR229@MJ@1@112
BR229@PT@1@28
BR229@RJ@1@48
BR269@IT@7@187
BR269@MJ@1@112
BR269@RJ@1@100
BR269@RJ@1@88
BR337@IT@8@186
BR337@MJ@1@112
BR337@RJ@1@365
BR338@IT@1@61
BR338@IT@6@21
BR011@IT@1@8
BR011@IT@3@125
BR011@PT@1@28
BR082@IT@2@65
BR082@IT@9@345
BR096@IT@2@27
BR098@IT@1@38
BR098@MJ@1@112
BR128@IT@1@66
BR128@IT@4@119
BR128@MJ@1@112
BR130@IT@2@180
BR130@RJ@2@365
BR146@IT@6@40
BR146@RJ@2@210
BR146@RJ@2@551
BR147@IT@1@4
BR148@IT@3@55
BR148@MJ@1@65
BR148@RJ@2@730
BR159@IT@1@19
BR159@RJ@1@50
BR167@IT@7@12
BR200@IT@2@21
BR211@IT@5@231
BR211@MJ@1@93
BR211@RJ@2@348
BR211@RJ@2@289
BR215@IT@2@12
BR215@PT@1@28
BR215@RJ@1@365
BR215@RJ@1@365
BR219@IT@1@56
BR219@IT@15@491
BR219@RJ@1@365
BR236@IT@2@36
BR237@IT@1@9
BR237@IT@1@5
BR144@IT@7@24
BR144@RJ@3@396
BR212@IT@3@41
BR212@RJ@2@566
BR217@IT@3@41
BR217@RJ@1@52
BR238@IT@2@155
BR253@IT@1@57
BR253@IT@1@26
BR253@MJ@1@31
BR253@RJ@3@1095
BR254@IT@1@21
BR254@RJ@2@495
BR350@IT@7@105
BR350@RJ@2@355
BR350@RJ@3@432
BR377@IT@1@1
BR029@IT@1@11
BR032@IT@1@40
BR032@RJ@1@365
BR045@IT@1@59
BR046@IT@1@2
BR017@IT@1@18
BR017@IT@5@19
BR019@IT@1@10
BR019@MJ@1@112
BR019@PT@1@28
BR019@RJ@1@365
BR019@RJ@3@364
BR020@IT@5@39
BR020@RJ@1@216
BR020@RJ@2@514
BR072@IT@2@114
BR072@IT@21@542
BR072@MJ@2@148
BR072@RJ@1@365
BR072@RJ@2@365
BR072@RJ@1@365
BR073@IT@3@139
BR073@MJ@2@186
BR073@RJ@1@94
BR074@IT@11@143
BR074@MJ@2@176
BR074@RJ@1@106
BR074@RJ@2@357
BR077@IT@1@40
BR077@IT@4@162
BR077@RJ@1@11
BR078@IT@2@147
BR078@IT@8@38
BR078@MJ@1@112
BR078@RJ@1@103
BR078@RJ@1@16
BR078@RJ@1@365
BR079@IT@2@26
BR079@RJ@1@365
BR312@IT@1@2
BR331@IT@10@572
BR331@RJ@1@365
BR331@RJ@2@730
BR021@IT@1@43
BR021@IT@6@140
BR021@MJ@1@112
BR022@IT@1@16
BR022@IT@1@86
BR022@MJ@1@22
BR022@PT@1@28
BR022@RJ@1@94
BR022@RJ@1@171
BR024@IT@1@9
BR033@IT@1@128
BR033@IT@2@207
BR033@RJ@1@86
BR033@RJ@1@200
BR034@IT@1@54
BR034@IT@5@63
BR034@PT@1@28
BR034@RJ@1@78
BR035@IT@1@12
BR035@IT@6@79
BR035@MJ@1@79
BR035@RJ@2@93
BR035@RJ@2@282
BR036@IT@1@10
BR036@IT@12@439
BR036@MJ@1@82
BR036@RJ@1@79
BR036@RJ@1@286
BR036@RJ@1@365
BR038@IT@3@335
BR039@IT@1@16
BR039@IT@9@106
BR039@MJ@1@67
BR039@RJ@1@164
BR039@RJ@3@730
BR040@IT@6@310
BR040@RJ@1@275
BR042@IT@7@75
BR042@RJ@1@22
BR042@RJ@1@48
BR042@RJ@3@708
BR042@RJ@2@396
BR043@IT@8@558
BR043@MJ@1@112
BR043@RJ@1@365
BR383@IT@2@103
BR383@MJ@2@131
BR383@RJ@1@41
BR028@IT@1@17
BR028@IT@9@93
BR028@MJ@2@215
BR028@RJ@1@96
BR028@RJ@1@76
BR028@RJ@1@365
BR047@IT@1@25
BR047@IT@8@88
BR047@RJ@2@569
BR048@IT@6@117
BR048@RJ@2@699
BR051@IT@1@53
BR051@IT@1@19
BR051@RJ@2@365
BR051@RJ@1@365
BR065@IT@9@353
BR065@MJ@2@180
BR065@RJ@1@20
BR065@RJ@3@720
BR065@RJ@3@648
BR067@IT@3@68
BR067@IT@10@621
BR067@RJ@1@79
BR067@RJ@1@198
BR075@IT@2@94
BR075@IT@6@53
BR075@MJ@2@224
BR075@RJ@1@11
BR075@RJ@2@502
BR075@RJ@3@744
BR076@IT@1@45
BR076@IT@7@95
BR076@RJ@2@484
BR076@RJ@1@164
BR326@IT@15@578
BR326@RJ@1@30
BR326@RJ@1@66
BR053@IT@1@1
BR053@IT@5@16
BR053@MJ@1@112
BR053@RJ@2@164
BR053@RJ@2@131
BR053@RJ@1@211
BR054@IT@6@582
BR054@RJ@1@365
BR055@IT@10@418
BR055@MJ@1@112
BR055@RJ@1@194
BR056@IT@4@24
BR057@IT@2@10
BR057@RJ@1@365
BR058@IT@1@23
BR058@RJ@1@365
BR059@IT@5@61
BR059@RJ@1@178
BR059@RJ@1@187
BR404@IT@4@46
BR404@MJ@1@112
BR404@RJ@1@99
BR404@RJ@1@76
BR404@RJ@1@365
BR061@IT@3@383
BR061@MJ@2@168
BR061@PT@1@28
BR061@RJ@1@98
BR061@RJ@1@118
BR061@RJ@1@365
BR061@RJ@1@118
BR062@IT@9@59
BR062@MJ@2@194
BR062@PT@1@28
BR063@IT@1@5
BR063@IT@4@190
BR063@RJ@2@476
BR063@RJ@1@181
BR063@RJ@1@49
BR064@IT@1@11
BR064@IT@6@72
BR068@RJ@1@365
BR069@IT@1@91
BR070@IT@1@20
BR070@IT@1@2
BR302@IT@1@21
BR302@IT@20@335
BR302@MJ@1@1
BR302@RJ@1@100
BR302@RJ@2@219
BR302@RJ@1@365
BR323@RJ@1@365
BR327@IT@1@18
BR327@IT@3@6
BR395@IT@1@5
BR395@IT@11@407
BR395@RJ@1@365
BR396@IT@1@40
BR396@IT@7@109
BR396@MJ@1@14
BR103@IT@1@59
BR169@IT@1@13
BR174@IT@2@63
BR174@IT@5@61
BR174@RJ@1@154
BR174@RJ@1@211
BR179@IT@1@11
BR180@IT@2@17
BR180@IT@11@154
BR180@MJ@1@50
BR180@RJ@1@142
BR180@RJ@1@143
BR233@IT@2@20
BR233@IT@5@105
BR259@IT@1@26
BR259@IT@2@46
BR259@RJ@1@365
BR095@IT@3@38
BR104@IT@1@23
BR104@IT@15@272
BR104@MJ@1@112
BR104@RJ@1@181
BR105@IT@1@22
BR105@IT@1@23
BR105@IT@17@31
BR105@MJ@1@98
BR105@PT@1@28
BR105@RJ@1@365
BR105@RJ@1@94
BR320@IT@6@382
BR320@RJ@1@365
BR322@IT@6@107
BR322@MJ@1@112
BR384@IT@3@77
BR384@RJ@1@100
BR386@IT@9@19
BR387@IT@1@1
BR387@RJ@1@365
BR387@RJ@1@257
BR089@IT@14@56
BR089@MJ@1@25
BR089@RJ@1@365
BR095@IT@10@118
BR095@PT@1@28
BR095@RJ@1@79
BR095@RJ@1@286
BR104@IT@1@4
BR121@IT@2@37
BR150@IT@1@10
BR164@IT@15@106
BR164@MJ@2@224
BR175@IT@9@305
BR207@IT@18@100
BR207@RJ@1@184
BR230@IT@3@145
BR230@IT@1@72
BR230@IT@13@299
BR284@IT@1@69
BR284@IT@6@291
BR284@RJ@1@275
BR285@IT@9@555
BR285@PT@1@28
BR285@RJ@2@301
BR285@RJ@3@853
BR286@IT@1@2
BR286@IT@41@246
BR287@IT@12@626
BR300@IT@1@10
BR300@IT@1@140
BR300@IT@4@34
BR300@RJ@1@365
BR315@IT@2@37
BR315@IT@2@43
BR315@IT@7@392
BR315@RJ@1@30
BR348@IT@2@17
BR348@IT@23@377
BR348@MJ@1@112
BR349@IT@1@7
BR349@IT@13@166
BR349@MJ@1@55
BR349@RJ@1@365
BR349@RJ@2@730
BR376@IT@4@190
BR391@IT@1@10
BR391@RJ@2@121
BR097@IT@3@387
BR097@MJ@1@112
BR097@RJ@1@365
BR190@IT@7@34
BR191@IT@15@76
BR192@IT@23@552
BR192@RJ@1@365
BR193@IT@3@250
BR194@IT@12@60
BR196@IT@1@4
BR196@IT@5@166
BR197@IT@2@9
BR197@IT@19@37
BR197@MJ@1@38
BR197@RJ@1@105
BR198@IT@1@19
BR198@IT@4@48
BR247@IT@1@9
BR247@IT@3@132
BR249@IT@3@34
BR249@PT@1@28
BR250@IT@1@2
BR309@IT@1@45
BR344@IT@11@101
BR345@IT@1@146
BR363@IT@1@2
BR363@IT@3@41
BR392@IT@3@142
BR392@MJ@1@112
BR392@PT@1@28
