0@EC01@Edat 0-1 anys@1
1@EC01@Edat 0-1 anys@1
2@EC24@Edat 2-4 anys@2
3@EC24@Edat 2-4 anys@2
4@EC24@Edat 2-4 anys@2
5@EC59@Edat 5-9 anys@3
6@EC59@Edat 5-9 anys@3
7@EC59@Edat 5-9 anys@3
8@EC59@Edat 5-9 anys@3
9@EC59@Edat 5-9 anys@3
10@EC1014@Edat 10-14 anys@4
11@EC1014@Edat 10-14 anys@4
12@EC1014@Edat 10-14 anys@4
13@EC1014@Edat 10-14 anys@4
14@EC1014@Edat 10-14 anys@4
15@EC1519@Edat 15-19 anys@5
16@EC1519@Edat 15-19 anys@5
17@EC1519@Edat 15-19 anys@5
18@EC1519@Edat 15-19 anys@5
19@EC1519@Edat 15-19 anys@5
20@EC2024@Edat 20-24 anys@6
21@EC2024@Edat 20-24 anys@6
22@EC2024@Edat 20-24 anys@6
23@EC2024@Edat 20-24 anys@6
24@EC2024@Edat 20-24 anys@6
25@EC2529@Edat 25-29 anys@7
26@EC2529@Edat 25-29 anys@7
27@EC2529@Edat 25-29 anys@7
28@EC2529@Edat 25-29 anys@7
29@EC2529@Edat 25-29 anys@7
30@EC3034@Edat 30-34 anys@8
31@EC3034@Edat 30-34 anys@8
32@EC3034@Edat 30-34 anys@8
33@EC3034@Edat 30-34 anys@8
34@EC3034@Edat 30-34 anys@8
35@EC3539@Edat 35-39 anys@9
36@EC3539@Edat 35-39 anys@9
37@EC3539@Edat 35-39 anys@9
38@EC3539@Edat 35-39 anys@9
39@EC3539@Edat 35-39 anys@9
40@EC4044@Edat 40-44 anys@10
41@EC4044@Edat 40-44 anys@10
42@EC4044@Edat 40-44 anys@10
43@EC4044@Edat 40-44 anys@10
44@EC4044@Edat 40-44 anys@10
45@EC4549@Edat 45-49 anys@11
46@EC4549@Edat 45-49 anys@11
47@EC4549@Edat 45-49 anys@11
48@EC4549@Edat 45-49 anys@11
49@EC4549@Edat 45-49 anys@11
50@EC5054@Edat 50-54 anys@12
51@EC5054@Edat 50-54 anys@12
52@EC5054@Edat 50-54 anys@12
53@EC5054@Edat 50-54 anys@12
54@EC5054@Edat 50-54 anys@12
55@EC5559@Edat 55-59 anys@13
56@EC5559@Edat 55-59 anys@13
57@EC5559@Edat 55-59 anys@13
58@EC5559@Edat 55-59 anys@13
59@EC5559@Edat 55-59 anys@13
60@EC6064@Edat 60-64 anys@14
61@EC6064@Edat 60-64 anys@14
62@EC6064@Edat 60-64 anys@14
63@EC6064@Edat 60-64 anys@14
64@EC6064@Edat 60-64 anys@14
65@EC6569@Edat 65-69 anys@15
66@EC6569@Edat 65-69 anys@15
67@EC6569@Edat 65-69 anys@15
68@EC6569@Edat 65-69 anys@15
69@EC6569@Edat 65-69 anys@15
70@EC7074@Edat 70-74 anys@16
71@EC7074@Edat 70-74 anys@16
72@EC7074@Edat 70-74 anys@16
73@EC7074@Edat 70-74 anys@16
74@EC7074@Edat 70-74 anys@16
75@EC7579@Edat 75-79 anys@17
76@EC7579@Edat 75-79 anys@17
77@EC7579@Edat 75-79 anys@17
78@EC7579@Edat 75-79 anys@17
79@EC7579@Edat 75-79 anys@17
80@EC8084@Edat 80-84 anys@18
81@EC8084@Edat 80-84 anys@18
82@EC8084@Edat 80-84 anys@18
83@EC8084@Edat 80-84 anys@18
84@EC8084@Edat 80-84 anys@18
85@EC8589@Edat 85-89 anys@19
86@EC8589@Edat 85-89 anys@19
87@EC8589@Edat 85-89 anys@19
88@EC8589@Edat 85-89 anys@19
89@EC8589@Edat 85-89 anys@19
90@EC9094@Edat 90-94 anys@20
91@EC9094@Edat 90-94 anys@20
92@EC9094@Edat 90-94 anys@20
93@EC9094@Edat 90-94 anys@20
94@EC9094@Edat 90-94 anys@20
95@EC95M@Edat 95-99 anys@21
96@EC95M@Edat 95-99 anys@21
97@EC95M@Edat 95-99 anys@21
98@EC95M@Edat 95-99 anys@21
99@EC95M@Edat 95-99 anys@21
100@EC95M@Edat 95-99 anys@21
101@EC95M@Edat 95-99 anys@21
102@EC95M@Edat 95-99 anys@21
103@EC95M@Edat 95-99 anys@21
104@EC95M@Edat 95-99 anys@21
105@EC95M@Edat 95-99 anys@21
106@EC95M@Edat 95-99 anys@21
107@EC95M@Edat 95-99 anys@21
108@EC95M@Edat 95-99 anys@21
109@EC95M@Edat 95-99 anys@21
110@EC95M@Edat 95-99 anys@21
111@EC95M@Edat 95-99 anys@21
112@EC95M@Edat 95-99 anys@21
113@EC95M@Edat 95-99 anys@21
114@EC95M@Edat 95-99 anys@21
115@EC95M@Edat 95-99 anys@21
116@EC95M@Edat 95-99 anys@21
117@EC95M@Edat 95-99 anys@21
118@EC95M@Edat 95-99 anys@21
119@EC95M@Edat 95-99 anys@21
120@EC95M@Edat 95-99 anys@21
