{
    "IT001": {
        "denominador": {
            "objecte": "altes",
            "clau": ["numero", "total"]
        },
        "numerador": {
            "objecte": "altes",
            "clau": ["dies", "total"]
        }
    },
    "IT002": {
        "denominador": {
            "objecte": "actius",
            "clau": ["numero", "brut"]
        },
        "numerador": {
            "objecte": "altes",
            "clau": ["dies", "total"]
        }
    },
    "IT003": {
        "denominador": {
            "objecte": "altes",
            "clau": ["numero", "total"]
        },
        "numerador": {
            "objecte": "altes",
            "clau": ["numero", "optim"]
        }
    },
    "IT004": {
        "denominador": {
            "objecte": "altes",
            "clau": ["numero", "total"]
        },
        "numerador": {
            "objecte": "altes",
            "clau": ["dies", "exces"]
        }
    },
    "IT005": {
        "denominador": {
            "objecte": "actius",
            "clau": ["numero", "brut"]
        },
        "numerador": {
            "objecte": "altes",
            "clau": ["cost", "total"]
        }
    },
    "IT006": {
        "denominador": {
            "objecte": "actius",
            "clau": ["numero", "brut"]
        },
        "numerador": {
            "objecte": "altes",
            "clau": ["cost", "exces"]
        }
    }
}