POBEC01D@Dones: Edat 0-1 anys@1
POBEC01H@Homes: Edat 0-1 anys@1
POBEC4044H@Homes: Edat 40-44 anys@10
POBEC4044D@Dones: Edat 40-44 anys@10
POBEC4549H@Homes: Edat 45-49 anys@11
POBEC4549D@Dones: Edat 45-49 anys@11
POBEC5054D@Dones: Edat 50-54 anys@12
POBEC5054H@Homes: Edat 50-54 anys@12
POBEC5559D@Dones: Edat 55-59 anys@13
POBEC5559H@Homes: Edat 55-59 anys@13
POBEC6064D@Dones: Edat 60-64 anys@14
POBEC6064H@Homes: Edat 60-64 anys@14
POBEC6569H@Homes: Edat 65-69 anys@15
POBEC6569D@Dones: Edat 65-69 anys@15
POBEC7074D@Dones: Edat 70-74 anys@16
POBEC7074H@Homes: Edat 70-74 anys@16
POBEC7579D@Dones: Edat 75-79 anys@17
POBEC7579H@Homes: Edat 75-79 anys@17
POBEC8084H@Homes: Edat 80-84 anys@18
POBEC8084D@Dones: Edat 80-84 anys@18
POBEC8589D@Dones: Edat 85-89 anys@19
POBEC8589H@Homes: Edat 85-89 anys@19
POBEC24H@Homes: Edat 2-4 anys@2
POBEC24D@Dones: Edat 2-4 anys@2
POBEC9094H@Homes: Edat 90-94 anys@20
POBEC9094D@Dones: Edat 90-94 anys@20
POBEC95MD@Dones: Edat majors 94 anys@21
POBEC95MH@Homes: Edat majors 94 anys@21
POBEC59H@Homes: Edat 5-9 anys@3
POBEC59D@Dones: Edat 5-9 anys@3
POBEC1014D@Dones: Edat 10-14 anys@4
POBEC1014H@Homes: Edat 10-14 anys@4
POBEC1519D@Dones: Edat 15-19 anys@5
POBEC1519H@Homes: Edat 15-19 anys@5
POBEC2024H@Homes: Edat 20-24 anys@6
POBEC2024D@Dones: Edat 20-24 anys@6
POBEC2529D@Dones: Edat 25-29 anys@7
POBEC2529H@Homes: Edat 25-29 anys@7
POBEC3034H@Homes: Edat 30-34 anys@8
POBEC3034D@Dones: Edat 30-34 anys@8
POBEC3539D@Dones: Edat 35-39 anys@9
POBEC3539H@Homes: Edat 35-39 anys@9
